# vtk DataFile Version 3.0
Generated by Pr Magoules HPC Research Group, CentraleSupelec, France.
ASCII
DATASET UNSTRUCTURED_GRID
POINTS 12 double
14.352313949737 1.477279813681 2.648445767250
12.623684812707 0.259397850281 1.447157961180
14.328311648776 -1.502294302428 2.628087036122
10.168820516733 -1.107605535091 0.174915756021
9.146245103676 0.782586464539 0.524389837432
3.627571831828 -0.085145473529 0.324252436984
9.424877060693 -6.353677538782 -0.138235196384
7.836028315457 -1.488225464015 -0.544739430638
8.671934226018 -3.792255602300 -0.335340775823
9.429375567239 6.366618367216 -0.137218822752
7.904612848045 2.067661834371 -0.370664879447
8.584161711128 3.482143176568 -0.417043016222
CELLS 21 63
2 0 2
2 0 1
2 1 2
2 1 4
2 1 3
2 3 7
2 3 8
2 3 4
2 4 5
2 4 7
2 4 10
2 4 11
2 5 7
2 5 10
2 6 8
2 7 8
2 7 10
2 7 11
2 9 11
2 9 10
2 10 11
CELL_TYPES 21
3
3
3
3
3
3
3
3
3
3
3
3
3
3
3
3
3
3
3
3
3
POINT_DATA 12
FIELD NEIGHBOURS 1
subdomain_numb_neighbours 1 12 int
2
4
2
4
6
3
1
6
3
2
5
4
FIELD LOAD_BALANCING 1
subdomain_numb_nodes 1 12 int
5954
6037
5927
6122
6131
6010
5815
6135
5988
5753
6048
6045
CELL_DATA 21
FIELD INTERFACE_SIZE 1
subdomain2numb_interface_node 1 21 int
53
77
63
104
60
103
7
86
64
18
93
7
47
17
89
116
25
33
87
7
233
